…
``` r
library(tidyverse)
```

## `pivot_longer`

``` r
pulse_df <- 
  haven::read_sas("./data/public_pulse_data.sas7bdat") %>%
  janitor::clean_names()
pulse_df
```

    ## # A tibble: 1,087 × 7
    ##       id   age sex    bdi_score_bl bdi_score_01m bdi_score_06m bdi_score_12m
    ##    <dbl> <dbl> <chr>         <dbl>         <dbl>         <dbl>         <dbl>
    ##  1 10003  48.0 male              7             1             2             0
    ##  2 10015  72.5 male              6            NA            NA            NA
    ##  3 10022  58.5 male             14             3             8            NA
    ##  4 10026  72.7 male             20             6            18            16
    ##  5 10035  60.4 male              4             0             1             2
    ##  6 10050  84.7 male              2            10            12             8
    ##  7 10078  31.3 male              4             0            NA            NA
    ##  8 10088  56.9 male              5            NA             0             2
    ##  9 10091  76.0 male              0             3             4             0
    ## 10 10092  74.2 female           10             2            11             6
    ## # … with 1,077 more rows
Problem: the BDI score is spread across four columns, which correspond
to four observation times. We can fix this problem using `pivot_longer`:

``` r
pulse_tidy_data <- 
  pivot_longer(
    pulse_df, 
    bdi_score_bl:bdi_score_12m,
    names_to = "visit", 
    values_to = "bdi")

pulse_tidy_data
```

    ## # A tibble: 4,348 × 5
    ##       id   age sex   visit           bdi
    ##    <dbl> <dbl> <chr> <chr>         <dbl>
    ##  1 10003  48.0 male  bdi_score_bl      7
    ##  2 10003  48.0 male  bdi_score_01m     1
    ##  3 10003  48.0 male  bdi_score_06m     2
    ##  4 10003  48.0 male  bdi_score_12m     0
    ##  5 10015  72.5 male  bdi_score_bl      6
    ##  6 10015  72.5 male  bdi_score_01m    NA
    ##  7 10015  72.5 male  bdi_score_06m    NA
    ##  8 10015  72.5 male  bdi_score_12m    NA
    ##  9 10022  58.5 male  bdi_score_bl     14
    ## 10 10022  58.5 male  bdi_score_01m     3
    ## # … with 4,338 more rows
…
``` r
pulse_tidy_data = 
  pivot_longer(
    pulse_df, 
    bdi_score_bl:bdi_score_12m,
    names_to = "visit", 
    names_prefix = "bdi_score_",
    values_to = "bdi")

pulse_tidy_data
```

    ## # A tibble: 4,348 × 5
    ##       id   age sex   visit   bdi
    ##    <dbl> <dbl> <chr> <chr> <dbl>
    ##  1 10003  48.0 male  bl        7
    ##  2 10003  48.0 male  01m       1
    ##  3 10003  48.0 male  06m       2
    ##  4 10003  48.0 male  12m       0
    ##  5 10015  72.5 male  bl        6
    ##  6 10015  72.5 male  01m      NA
    ##  7 10015  72.5 male  06m      NA
    ##  8 10015  72.5 male  12m      NA
    ##  9 10022  58.5 male  bl       14
    ## 10 10022  58.5 male  01m       3
    ## # … with 4,338 more rows
…
print(pulse_df, n = 12)
```

    ## # A tibble: 4,348 × 5
    ##    visit    id   age sex     bdi
    ##    <fct> <dbl> <dbl> <chr> <dbl>
    ##  1 00m   10003  48.0 male      7
    ##  2 01m   10003  48.0 male      1
    ##  3 06m   10003  48.0 male      2
    ##  4 12m   10003  48.0 male      0
    ##  5 00m   10015  72.5 male      6
    ##  6 01m   10015  72.5 male     NA
    ##  7 06m   10015  72.5 male     NA
    ##  8 12m   10015  72.5 male     NA
    ##  9 00m   10022  58.5 male     14
    ## 10 01m   10022  58.5 male      3
    ## 11 06m   10022  58.5 male      8
    ## 12 12m   10022  58.5 male     NA
    ## # … with 4,336 more rows
…
## join

Look at FAS data.

``` r
pup_data = 
  read_csv("./data/FAS_pups.csv") %>%
  janitor::clean_names() %>%
  mutate(
    sex = recode(sex, `1` = "male", `2` = "female"),
    sex = factor(sex)) 
pup_data
```

    ## # A tibble: 313 × 6
    ##    litter_number sex   pd_ears pd_eyes pd_pivot pd_walk
    ##    <chr>         <fct>   <dbl>   <dbl>    <dbl>   <dbl>
    ##  1 #85           male        4      13        7      11
    ##  2 #85           male        4      13        7      12
    ##  3 #1/2/95/2     male        5      13        7       9
    ##  4 #1/2/95/2     male        5      13        8      10
    ##  5 #5/5/3/83/3-3 male        5      13        8      10
    ##  6 #5/5/3/83/3-3 male        5      14        6       9
    ##  7 #5/4/2/95/2   male       NA      14        5       9
    ##  8 #4/2/95/3-3   male        4      13        6       8
    ##  9 #4/2/95/3-3   male        4      13        7       9
    ## 10 #2/2/95/3-2   male        4      NA        8      10
    ## # … with 303 more rows

``` r
litter_data = 
  read_csv("./data/FAS_litters.csv") %>%
  janitor::clean_names() %>%
  separate(group, into = c("dose", "day_of_tx"), sep = 3) %>%
  relocate(litter_number) %>%
  mutate(
    wt_gain = gd18_weight - gd0_weight,
    dose = str_to_lower(dose))
litter_data
```

    ## # A tibble: 49 × 10
    ##    litter_number   dose  day_of_tx gd0_weight gd18_weight gd_of_birth
    ##    <chr>           <chr> <chr>          <dbl>       <dbl>       <dbl>
    ##  1 #85             con   7               19.7        34.7          20
    ##  2 #1/2/95/2       con   7               27          42            19
    ##  3 #5/5/3/83/3-3   con   7               26          41.4          19
    ##  4 #5/4/2/95/2     con   7               28.5        44.1          19
    ##  5 #4/2/95/3-3     con   7               NA          NA            20
    ##  6 #2/2/95/3-2     con   7               NA          NA            20
    ##  7 #1/5/3/83/3-3/2 con   7               NA          NA            20
    ##  8 #3/83/3-3       con   8               NA          NA            20
    ##  9 #2/95/3         con   8               NA          NA            20
    ## 10 #3/5/2/2/95     con   8               28.5        NA            20
    ## # … with 39 more rows, and 4 more variables: pups_born_alive <dbl>,
    ## #   pups_dead_birth <dbl>, pups_survive <dbl>, wt_gain <dbl>

Let’s join these up!

``` r
fas_data = 
  left_join(pup_data, litter_data, by = "litter_number")

fas_data
```

    ## # A tibble: 313 × 15
    ##    litter_number sex   pd_ears pd_eyes pd_pivot pd_walk dose  day_of_tx
    ##    <chr>         <fct>   <dbl>   <dbl>    <dbl>   <dbl> <chr> <chr>    
    ##  1 #85           male        4      13        7      11 con   7        
    ##  2 #85           male        4      13        7      12 con   7        
    ##  3 #1/2/95/2     male        5      13        7       9 con   7        
    ##  4 #1/2/95/2     male        5      13        8      10 con   7        
    ##  5 #5/5/3/83/3-3 male        5      13        8      10 con   7        
    ##  6 #5/5/3/83/3-3 male        5      14        6       9 con   7        
    ##  7 #5/4/2/95/2   male       NA      14        5       9 con   7        
    ##  8 #4/2/95/3-3   male        4      13        6       8 con   7        
    ##  9 #4/2/95/3-3   male        4      13        7       9 con   7        
    ## 10 #2/2/95/3-2   male        4      NA        8      10 con   7        
    ## # … with 303 more rows, and 7 more variables: gd0_weight <dbl>,
    ## #   gd18_weight <dbl>, gd_of_birth <dbl>, pups_born_alive <dbl>,
    ## #   pups_dead_birth <dbl>, pups_survive <dbl>, wt_gain <dbl>
